Title Goes Here
…
#> # A tibble: 1,506 x 3
#>    document topic     gamma
#>       <chr> <int>     <dbl>
#>  1    15640    12 0.5480226
#>  2    16444    12 0.5465465
#>  3    15227    12 0.5160256
#>  4    16303    12 0.4967949
#>  5    15939    12 0.4673203
#>  6    16615    12 0.4641745
#>  7    15129    12 0.4432624
#>  8    15444    23 0.4311594
#>  9    16134    12 0.4293333
#> 10    16095    12 0.4236111
#> # ... with 1,496 more rows
…
